version="0.6.1"
tags={
	"Utilities"
	"Graphics"
}
name="Scrollable Legacies"
supported_version="1.13.*"
path="C:/Users/garbu/OneDrive/Documents/Paradox Interactive/Crusader Kings III/mod/ScrollableLegacies"
remote_file_id="2862258477"